%YAML 1.1
%TAG !u! tag:unity3d.com,2011:
--- !u!1045 &1
EditorBuildSettings:
  m_ObjectHideFlags: 0
  serializedVersion: 2
  m_Scenes:
  - enabled: 1
    path: Assets/Homework06/Scenes/ColorSnake.unity
    guid: 37a9988eacb670b408fad9c02f980430
  - enabled: 1
    path: Assets/Homework06/Scenes/ResultScreen.unity
    guid: 4147e79749ff36245955be49a92da440
  m_configObjects: {}
